nom;type food;aquatique;duree_vie
Chien;Omnivore;0;14
Chat;Omnivore;0;15
Requin;Carnivore;1;55
Tortue;Herbivore;0;60
Éléphant;Herbivore;0;60
Dauphin;Carnivore;1;40
Girafe;Herbivore;0;15
Ours;Omnivore;0;30
Loup;Carnivore;0;14
Pingouin;Carnivore;1;20
