,zone;nom;capacite;taille;eau;responsable,,,,,
1,A01;La savane;45;26500;0;3,,,,,1;A01;La savane;45;26500;0;3
2,A02;Les bois;50;15750;1;6,,,,,2;A02;Les bois;50;15750;1;6
3,A03;La foret enchantée;30;8600;0;7,,,,,3;A03;La foret enchantée;30;8600;0;7
4,B01;Bassin 1;10;450;1;5,,,,,4;B01;Bassin 1;10;450;1;5
5,B02;Bassin 2;20;780;1;4,,,,,5;B02;Bassin 2;20;780;1;4
6,C01;Montagne;35;12700;0;6,,,,,6;C01;Montagne;35;12700;0;6
7,SOI;Local de soin;8;250;NULL;9,,,,,7;SOI;Local de soin;8;250;NULL;9
8,DIR;Locaux de la direction;NULL;120;NULL;1,,,,,8;DIR;Locaux de la direction;NULL;120;NULL;1
